…
## EDA with Instacart Dataset

Counting \# of aisles and aisles most commonly ordered from.

``` r
pop_aisle = 
  count(instacart, aisle_id) %>% 
  arrange(desc(n))

pop_aisle
```

    ## # A tibble: 134 x 2
    ##    aisle_id      n
    ##       <int>  <int>
    ##  1       83 150609
    ##  2       24 150473
    ##  3      123  78493
    ##  4      120  55240
    ##  5       21  41699
    ##  6      115  36617
    ##  7       84  32644
    ##  8      107  31269
    ##  9       91  26240
    ## 10      112  23635
    ## # … with 124 more rows
…
